$MeshFormat
2.2 0 8
$EndMeshFormat
$PhysicalNames
10
0 6 "cornersw"
0 7 "cornerse"
0 8 "cornerne"
0 9 "cornernw"
1 2 "linenorth"
1 3 "linesouth"
1 4 "lineeast"
1 5 "linewest"
2 1 "nique"
2 10 "surf"
$EndPhysicalNames
$Nodes
146
1 0 0 0
2 10 0 0
3 10 10 0
4 0 10 0
5 0.9999999999991893 0 0
6 1.999999999996827 0 0
7 2.99999999999391 0 0
8 3.999999999991027 0 0
9 4.999999999992411 0 0
10 5.999999999993932 0 0
11 6.999999999995455 0 0
12 7.999999999996978 0 0
13 8.99999999999849 0 0
14 10 0.9999999999991893 0
15 10 1.999999999996827 0
16 10 2.99999999999391 0
17 10 3.999999999991027 0
18 10 4.999999999992411 0
19 10 5.999999999993932 0
20 10 6.999999999995455 0
21 10 7.999999999996978 0
22 10 8.99999999999849 0
23 8.999999999999998 10 0
24 7.999999999999996 10 0
25 6.999999999999994 10 0
26 5.999999999999991 10 0
27 4.999999999999989 10 0
28 3.999999999999988 10 0
29 2.999999999999985 10 0
30 1.999999999999982 10 0
31 0.9999999999999911 10 0
32 0 8.999999999999998 0
33 0 7.999999999999996 0
34 0 6.999999999999994 0
35 0 5.999999999999991 0
36 0 4.999999999999989 0
37 0 3.999999999999988 0
38 0 2.999999999999985 0
39 0 1.999999999999982 0
40 0 0.9999999999999911 0
41 5.122922327914687 4.939891990563254 0
42 2.813727349572259 2.963357667626018 0
43 7.036642332373791 2.813727349571658 0
44 2.928571428571427 7.071428571428571 0
45 7.186394394796598 7.019695009969412 0
46 2.10736089731577 4.931669556251792 0
47 4.930663968377565 2.241420925201528 0
48 4.931669556251761 7.892639102684172 0
49 7.758579074798417 4.930663968377559 0
50 1.705026455026364 1.70502645502683 0
51 8.294973544973077 1.70502645502601 0
52 1.705026455026455 8.294973544973542 0
53 8.294973544973896 8.29497354497345 0
54 3.592898873606631 1.511339309160527 0
55 1.511339309159093 3.592898873606395 0
56 8.48866069083944 3.59289887360663 0
57 1.511339309159079 6.407101126393752 0
58 6.407101126393837 1.511339309158117 0
59 3.616585335450351 8.479452856065885 0
60 6.40710112639375 8.488660690840886 0
61 8.488660690841852 6.407101126393876 0
62 3.598432055749093 4.330139372822392 0
63 5.753976003410491 3.590074519500482 0
64 4.279891289155754 6.360639469450856 0
65 6.346851040463602 5.740982379188556 0
66 4.280157880459646 3.119659119231895 0
67 3.404721368011292 5.684127819863343 0
68 6.631511381507192 4.229213643011721 0
69 5.675059488502898 6.504727011378297 0
70 1.094000493373128 4.619391335246764 0
71 5.335396291358496 1.098432055747972 0
72 4.620901951435787 8.905412272266194 0
73 8.901567944251994 5.335396291358496 0
74 2.609263968559826 0.9766513578694904 0
75 9.023348642130447 2.609263968559572 0
76 0.9939057035557726 2.597014030181641 0
77 2.611680954463808 9.02240906715466 0
78 0.9939057035557748 7.402985969818568 0
79 7.390736031438912 9.023348642131671 0
80 7.402985969817564 0.993905703554685 0
81 9.006094296445269 7.402985969817735 0
82 2.547170282818096 3.958793750760971 0
83 5.987875011236294 2.642648763252994 0
84 3.958793750760917 7.452829717181826 0
85 7.344243013618565 5.989764667158025 0
86 2.517037030668099 6.047782481598742 0
87 6.049482392017966 7.467238234304629 0
88 4.640850906931174 4.000200444105789 0
89 6.013954276911945 4.88940791036852 0
90 0.9987810650544741 0.9987810650544749 0
91 9.0012189349456 0.9987810650543931 0
92 0.9688906079890418 9.031109392010958 0
93 9.001218934945689 9.001218934945683 0
94 4.299212442786884 0.8324867532408363 0
95 9.167513246759144 4.299212442786888 0
96 0.8317481595115053 5.693252161643601 0
97 5.693503931008434 9.168153968095032 0
98 2.00383433563187 2.629763547966269 0
99 7.370236452032789 2.003834335630863 0
100 2.06299028060031 7.206154110072179 0
101 7.996165664369042 7.370236452033142 0
102 2.735632783465588 2.03447737523552 0
103 2.722061756621027 8.012652966219896 0
104 7.965522624764255 2.735632783465202 0
105 7.277938243380421 8.012652966219637 0
106 3.739739289935527 2.445132799593538 0
107 7.519320129083396 3.732461541728534 0
108 4.120133954071481 5.112458471043959 0
109 5.088646285544096 5.903226734545096 0
110 5.058148099949461 3.072866313295573 0
111 3.457635801991235 6.460841741565837 0
112 6.819027757459945 5.156006513620876 0
113 6.45976464753348 6.528619458152105 0
114 3.500275056987656 0.6640954840541708 0
115 9.335904515945805 3.500275056987605 0
116 0.7198491012175986 3.561860847806954 0
117 3.569833648269984 9.281454839097348 0
118 0.6673986344452718 6.500667851571182 0
119 6.498268217768217 9.336032660213519 0
120 6.429096677511857 0.7207354136921549 0
121 9.279264586307823 6.429096677511899 0
122 1.798982798902728 0.7997140572254783 0
123 9.200285942774583 1.798982798902621 0
124 0.7997140572243914 1.798982798902278 0
125 1.798982798902147 9.200285942775684 0
126 0.7997140572242668 8.201017201097896 0
127 8.201017201097999 9.200285942775791 0
128 8.201017201098134 0.7997140572234079 0
129 9.200285942776668 8.201017201098264 0
130 3.561851547970707 3.488631638110491 0
131 3.011973365309702 4.914764969413968 0
132 6.526008127105715 3.429293499187897 0
133 4.929873698221945 6.968970616856118 0
134 4.379582173213021 1.62576236858888 0
135 8.367128217146478 4.378126623571621 0
136 1.684073371207108 5.608764683566238 0
137 5.608944936376146 8.315072305501452 0
138 1.826035415292135 4.259979882679104 0
139 5.727722632586881 1.838216281112607 0
140 4.281987648474703 8.18258348704952 0
141 8.16110128328091 5.72782101117509 0
142 5.659498312385709 5.552811172463265 0
143 2.186511532081911 3.330659980719517 0
144 6.669340019279999 2.186511532080673 0
145 7.813488467919225 6.669340019280224 0
146 5.503862600817017 4.299093652447633 0
$EndNodes
$Elements
544
1 15 2 6 1 1
2 15 2 7 2 2
3 15 2 8 3 3
4 15 2 9 4 4
5 1 2 3 1 1 5
6 1 2 3 1 5 6
7 1 2 3 1 6 7
8 1 2 3 1 7 8
9 1 2 3 1 8 9
10 1 2 3 1 9 10
11 1 2 3 1 10 11
12 1 2 3 1 11 12
13 1 2 3 1 12 13
14 1 2 3 1 13 2
15 1 2 4 2 2 14
16 1 2 4 2 14 15
17 1 2 4 2 15 16
18 1 2 4 2 16 17
19 1 2 4 2 17 18
20 1 2 4 2 18 19
21 1 2 4 2 19 20
22 1 2 4 2 20 21
23 1 2 4 2 21 22
24 1 2 4 2 22 3
25 1 2 2 3 3 23
26 1 2 2 3 23 24
27 1 2 2 3 24 25
28 1 2 2 3 25 26
29 1 2 2 3 26 27
30 1 2 2 3 27 28
31 1 2 2 3 28 29
32 1 2 2 3 29 30
33 1 2 2 3 30 31
34 1 2 2 3 31 4
35 1 2 5 4 4 32
36 1 2 5 4 32 33
37 1 2 5 4 33 34
38 1 2 5 4 34 35
39 1 2 5 4 35 36
40 1 2 5 4 36 37
41 1 2 5 4 37 38
42 1 2 5 4 38 39
43 1 2 5 4 39 40
44 1 2 5 4 40 1
45 2 2 1 1 146 68 89
46 2 2 10 1 146 68 89
47 2 2 1 1 1 5 90
48 2 2 10 1 1 5 90
49 2 2 1 1 2 14 91
50 2 2 10 1 2 14 91
51 2 2 1 1 1 90 40
52 2 2 10 1 1 90 40
53 2 2 1 1 4 92 31
54 2 2 10 1 4 92 31
55 2 2 1 1 4 32 92
56 2 2 10 1 4 32 92
57 2 2 1 1 2 91 13
58 2 2 10 1 2 91 13
59 2 2 1 1 3 23 93
60 2 2 10 1 3 23 93
61 2 2 1 1 3 93 22
62 2 2 10 1 3 93 22
63 2 2 1 1 66 88 130
64 2 2 10 1 66 88 130
65 2 2 1 1 67 86 131
66 2 2 10 1 67 86 131
67 2 2 1 1 69 87 133
68 2 2 10 1 69 87 133
69 2 2 1 1 63 68 146
70 2 2 10 1 63 68 146
71 2 2 1 1 64 67 108
72 2 2 10 1 64 67 108
73 2 2 1 1 64 108 109
74 2 2 10 1 64 108 109
75 2 2 1 1 47 66 106
76 2 2 10 1 47 66 106
77 2 2 1 1 49 68 107
78 2 2 10 1 49 68 107
79 2 2 1 1 131 86 46
80 2 2 10 1 131 86 46
81 2 2 1 1 133 87 48
82 2 2 10 1 133 87 48
83 2 2 1 1 130 88 62
84 2 2 10 1 130 88 62
85 2 2 1 1 59 103 84
86 2 2 10 1 59 103 84
87 2 2 1 1 44 84 103
88 2 2 10 1 44 84 103
89 2 2 1 1 57 86 100
90 2 2 10 1 57 86 100
91 2 2 1 1 36 37 70
92 2 2 10 1 36 37 70
93 2 2 1 1 27 28 72
94 2 2 10 1 27 28 72
95 2 2 1 1 9 10 71
96 2 2 10 1 9 10 71
97 2 2 1 1 18 19 73
98 2 2 10 1 18 19 73
99 2 2 1 1 37 116 70
100 2 2 10 1 37 116 70
101 2 2 1 1 28 117 72
102 2 2 10 1 28 117 72
103 2 2 1 1 10 120 71
104 2 2 10 1 10 120 71
105 2 2 1 1 19 121 73
106 2 2 10 1 19 121 73
107 2 2 1 1 47 106 134
108 2 2 10 1 47 106 134
109 2 2 1 1 49 107 135
110 2 2 10 1 49 107 135
111 2 2 1 1 63 132 68
112 2 2 10 1 63 132 68
113 2 2 1 1 44 100 86
114 2 2 10 1 44 100 86
115 2 2 1 1 62 88 108
116 2 2 10 1 62 88 108
117 2 2 1 1 65 69 142
118 2 2 10 1 65 69 142
119 2 2 1 1 47 110 66
120 2 2 10 1 47 110 66
121 2 2 1 1 64 111 67
122 2 2 10 1 64 111 67
123 2 2 1 1 49 112 68
124 2 2 10 1 49 112 68
125 2 2 1 1 65 113 69
126 2 2 10 1 65 113 69
127 2 2 1 1 41 109 108
128 2 2 10 1 41 109 108
129 2 2 1 1 55 70 116
130 2 2 10 1 55 70 116
131 2 2 1 1 59 72 117
132 2 2 10 1 59 72 117
133 2 2 1 1 58 71 120
134 2 2 10 1 58 71 120
135 2 2 1 1 61 73 121
136 2 2 10 1 61 73 121
137 2 2 1 1 6 7 74
138 2 2 10 1 6 7 74
139 2 2 1 1 15 16 75
140 2 2 10 1 15 16 75
141 2 2 1 1 38 39 76
142 2 2 10 1 38 39 76
143 2 2 1 1 29 30 77
144 2 2 10 1 29 30 77
145 2 2 1 1 33 34 78
146 2 2 10 1 33 34 78
147 2 2 1 1 24 25 79
148 2 2 10 1 24 25 79
149 2 2 1 1 11 12 80
150 2 2 10 1 11 12 80
151 2 2 1 1 20 21 81
152 2 2 10 1 20 21 81
153 2 2 1 1 60 87 105
154 2 2 10 1 60 87 105
155 2 2 1 1 41 108 88
156 2 2 10 1 41 108 88
157 2 2 1 1 45 105 87
158 2 2 10 1 45 105 87
159 2 2 1 1 36 70 96
160 2 2 10 1 36 70 96
161 2 2 1 1 27 72 97
162 2 2 10 1 27 72 97
163 2 2 1 1 9 71 94
164 2 2 10 1 9 71 94
165 2 2 1 1 18 73 95
166 2 2 10 1 18 73 95
167 2 2 1 1 55 76 98
168 2 2 10 1 55 76 98
169 2 2 1 1 57 100 78
170 2 2 10 1 57 100 78
171 2 2 1 1 58 80 99
172 2 2 10 1 58 80 99
173 2 2 1 1 61 81 101
174 2 2 10 1 61 81 101
175 2 2 1 1 46 136 70
176 2 2 10 1 46 136 70
177 2 2 1 1 48 137 72
178 2 2 10 1 48 137 72
179 2 2 1 1 47 134 71
180 2 2 10 1 47 134 71
181 2 2 1 1 49 135 73
182 2 2 10 1 49 135 73
183 2 2 1 1 69 109 142
184 2 2 10 1 69 109 142
185 2 2 1 1 63 110 83
186 2 2 10 1 63 110 83
187 2 2 1 1 65 112 85
188 2 2 10 1 65 112 85
189 2 2 1 1 65 85 113
190 2 2 10 1 65 85 113
191 2 2 1 1 64 84 111
192 2 2 10 1 64 84 111
193 2 2 1 1 50 74 102
194 2 2 10 1 50 74 102
195 2 2 1 1 51 75 104
196 2 2 10 1 51 75 104
197 2 2 1 1 52 103 77
198 2 2 10 1 52 103 77
199 2 2 1 1 53 79 105
200 2 2 10 1 53 79 105
201 2 2 1 1 47 83 110
202 2 2 10 1 47 83 110
203 2 2 1 1 49 85 112
204 2 2 10 1 49 85 112
205 2 2 1 1 44 111 84
206 2 2 10 1 44 111 84
207 2 2 1 1 45 113 85
208 2 2 10 1 45 113 85
209 2 2 1 1 35 36 96
210 2 2 10 1 35 36 96
211 2 2 1 1 26 27 97
212 2 2 10 1 26 27 97
213 2 2 1 1 8 9 94
214 2 2 10 1 8 9 94
215 2 2 1 1 17 18 95
216 2 2 10 1 17 18 95
217 2 2 1 1 46 86 136
218 2 2 10 1 46 86 136
219 2 2 1 1 48 87 137
220 2 2 10 1 48 87 137
221 2 2 1 1 6 74 122
222 2 2 10 1 6 74 122
223 2 2 1 1 15 75 123
224 2 2 10 1 15 75 123
225 2 2 1 1 39 124 76
226 2 2 10 1 39 124 76
227 2 2 1 1 30 125 77
228 2 2 10 1 30 125 77
229 2 2 1 1 33 78 126
230 2 2 10 1 33 78 126
231 2 2 1 1 24 79 127
232 2 2 10 1 24 79 127
233 2 2 1 1 12 128 80
234 2 2 10 1 12 128 80
235 2 2 1 1 21 129 81
236 2 2 10 1 21 129 81
237 2 2 1 1 56 104 75
238 2 2 10 1 56 104 75
239 2 2 1 1 54 102 74
240 2 2 10 1 54 102 74
241 2 2 1 1 60 105 79
242 2 2 10 1 60 105 79
243 2 2 1 1 59 77 103
244 2 2 10 1 59 77 103
245 2 2 1 1 50 98 76
246 2 2 10 1 50 98 76
247 2 2 1 1 51 99 80
248 2 2 10 1 51 99 80
249 2 2 1 1 52 78 100
250 2 2 10 1 52 78 100
251 2 2 1 1 53 101 81
252 2 2 10 1 53 101 81
253 2 2 1 1 5 6 122
254 2 2 10 1 5 6 122
255 2 2 1 1 14 15 123
256 2 2 10 1 14 15 123
257 2 2 1 1 39 40 124
258 2 2 10 1 39 40 124
259 2 2 1 1 30 31 125
260 2 2 10 1 30 31 125
261 2 2 1 1 32 33 126
262 2 2 10 1 32 33 126
263 2 2 1 1 23 24 127
264 2 2 10 1 23 24 127
265 2 2 1 1 12 13 128
266 2 2 10 1 12 13 128
267 2 2 1 1 21 22 129
268 2 2 10 1 21 22 129
269 2 2 1 1 70 136 96
270 2 2 10 1 70 136 96
271 2 2 1 1 72 137 97
272 2 2 10 1 72 137 97
273 2 2 1 1 71 134 94
274 2 2 10 1 71 134 94
275 2 2 1 1 73 135 95
276 2 2 10 1 73 135 95
277 2 2 1 1 5 122 90
278 2 2 10 1 5 122 90
279 2 2 1 1 14 123 91
280 2 2 10 1 14 123 91
281 2 2 1 1 40 90 124
282 2 2 10 1 40 90 124
283 2 2 1 1 31 92 125
284 2 2 10 1 31 92 125
285 2 2 1 1 32 126 92
286 2 2 10 1 32 126 92
287 2 2 1 1 23 127 93
288 2 2 10 1 23 127 93
289 2 2 1 1 13 91 128
290 2 2 10 1 13 91 128
291 2 2 1 1 22 93 129
292 2 2 10 1 22 93 129
293 2 2 1 1 50 102 98
294 2 2 10 1 50 102 98
295 2 2 1 1 52 100 103
296 2 2 10 1 52 100 103
297 2 2 1 1 51 104 99
298 2 2 10 1 51 104 99
299 2 2 1 1 53 105 101
300 2 2 10 1 53 105 101
301 2 2 1 1 63 83 132
302 2 2 10 1 63 83 132
303 2 2 1 1 62 82 130
304 2 2 10 1 62 82 130
305 2 2 1 1 62 131 82
306 2 2 10 1 62 131 82
307 2 2 1 1 64 133 84
308 2 2 10 1 64 133 84
309 2 2 1 1 47 71 139
310 2 2 10 1 47 71 139
311 2 2 1 1 58 139 71
312 2 2 10 1 58 139 71
313 2 2 1 1 55 138 70
314 2 2 10 1 55 138 70
315 2 2 1 1 46 70 138
316 2 2 10 1 46 70 138
317 2 2 1 1 49 73 141
318 2 2 10 1 49 73 141
319 2 2 1 1 61 141 73
320 2 2 10 1 61 141 73
321 2 2 1 1 59 140 72
322 2 2 10 1 59 140 72
323 2 2 1 1 48 72 140
324 2 2 10 1 48 72 140
325 2 2 1 1 58 120 80
326 2 2 10 1 58 120 80
327 2 2 1 1 7 114 74
328 2 2 10 1 7 114 74
329 2 2 1 1 16 115 75
330 2 2 10 1 16 115 75
331 2 2 1 1 61 121 81
332 2 2 10 1 61 121 81
333 2 2 1 1 11 80 120
334 2 2 10 1 11 80 120
335 2 2 1 1 55 116 76
336 2 2 10 1 55 116 76
337 2 2 1 1 20 81 121
338 2 2 10 1 20 81 121
339 2 2 1 1 38 76 116
340 2 2 10 1 38 76 116
341 2 2 1 1 34 118 78
342 2 2 10 1 34 118 78
343 2 2 1 1 29 77 117
344 2 2 10 1 29 77 117
345 2 2 1 1 25 119 79
346 2 2 10 1 25 119 79
347 2 2 1 1 57 78 118
348 2 2 10 1 57 78 118
349 2 2 1 1 59 117 77
350 2 2 10 1 59 117 77
351 2 2 1 1 54 74 114
352 2 2 10 1 54 74 114
353 2 2 1 1 60 79 119
354 2 2 10 1 60 79 119
355 2 2 1 1 56 75 115
356 2 2 10 1 56 75 115
357 2 2 1 1 42 106 130
358 2 2 10 1 42 106 130
359 2 2 1 1 66 130 106
360 2 2 10 1 66 130 106
361 2 2 1 1 43 107 132
362 2 2 10 1 43 107 132
363 2 2 1 1 68 132 107
364 2 2 10 1 68 132 107
365 2 2 1 1 56 107 104
366 2 2 10 1 56 107 104
367 2 2 1 1 54 106 102
368 2 2 10 1 54 106 102
369 2 2 1 1 42 130 82
370 2 2 10 1 42 130 82
371 2 2 1 1 43 132 83
372 2 2 10 1 43 132 83
373 2 2 1 1 46 82 131
374 2 2 10 1 46 82 131
375 2 2 1 1 48 84 133
376 2 2 10 1 48 84 133
377 2 2 1 1 62 108 131
378 2 2 10 1 62 108 131
379 2 2 1 1 67 131 108
380 2 2 10 1 67 131 108
381 2 2 1 1 64 109 133
382 2 2 10 1 64 109 133
383 2 2 1 1 69 133 109
384 2 2 10 1 69 133 109
385 2 2 1 1 43 104 107
386 2 2 10 1 43 104 107
387 2 2 1 1 42 102 106
388 2 2 10 1 42 102 106
389 2 2 1 1 50 122 74
390 2 2 10 1 50 122 74
391 2 2 1 1 51 123 75
392 2 2 10 1 51 123 75
393 2 2 1 1 50 76 124
394 2 2 10 1 50 76 124
395 2 2 1 1 51 80 128
396 2 2 10 1 51 80 128
397 2 2 1 1 52 77 125
398 2 2 10 1 52 77 125
399 2 2 1 1 52 126 78
400 2 2 10 1 52 126 78
401 2 2 1 1 53 127 79
402 2 2 10 1 53 127 79
403 2 2 1 1 53 81 129
404 2 2 10 1 53 81 129
405 2 2 1 1 67 111 86
406 2 2 10 1 67 111 86
407 2 2 1 1 44 86 111
408 2 2 10 1 44 86 111
409 2 2 1 1 69 113 87
410 2 2 10 1 69 113 87
411 2 2 1 1 45 87 113
412 2 2 10 1 45 87 113
413 2 2 1 1 42 98 102
414 2 2 10 1 42 98 102
415 2 2 1 1 43 99 104
416 2 2 10 1 43 99 104
417 2 2 1 1 44 103 100
418 2 2 10 1 44 103 100
419 2 2 1 1 45 101 105
420 2 2 10 1 45 101 105
421 2 2 1 1 66 110 88
422 2 2 10 1 66 110 88
423 2 2 1 1 63 88 110
424 2 2 10 1 63 88 110
425 2 2 1 1 68 112 89
426 2 2 10 1 68 112 89
427 2 2 1 1 65 89 112
428 2 2 10 1 65 89 112
429 2 2 1 1 46 138 82
430 2 2 10 1 46 138 82
431 2 2 1 1 47 139 83
432 2 2 10 1 47 139 83
433 2 2 1 1 59 84 140
434 2 2 10 1 59 84 140
435 2 2 1 1 48 140 84
436 2 2 10 1 48 140 84
437 2 2 1 1 49 141 85
438 2 2 10 1 49 141 85
439 2 2 1 1 42 82 143
440 2 2 10 1 42 82 143
441 2 2 1 1 43 83 144
442 2 2 10 1 43 83 144
443 2 2 1 1 45 85 145
444 2 2 10 1 45 85 145
445 2 2 1 1 55 98 143
446 2 2 10 1 55 98 143
447 2 2 1 1 58 99 144
448 2 2 10 1 58 99 144
449 2 2 1 1 61 101 145
450 2 2 10 1 61 101 145
451 2 2 1 1 57 136 86
452 2 2 10 1 57 136 86
453 2 2 1 1 60 137 87
454 2 2 10 1 60 137 87
455 2 2 1 1 82 138 143
456 2 2 10 1 82 138 143
457 2 2 1 1 83 139 144
458 2 2 10 1 83 139 144
459 2 2 1 1 85 141 145
460 2 2 10 1 85 141 145
461 2 2 1 1 50 90 122
462 2 2 10 1 50 90 122
463 2 2 1 1 50 124 90
464 2 2 10 1 50 124 90
465 2 2 1 1 51 91 123
466 2 2 10 1 51 91 123
467 2 2 1 1 51 128 91
468 2 2 10 1 51 128 91
469 2 2 1 1 52 92 126
470 2 2 10 1 52 92 126
471 2 2 1 1 52 125 92
472 2 2 10 1 52 125 92
473 2 2 1 1 53 93 127
474 2 2 10 1 53 93 127
475 2 2 1 1 53 129 93
476 2 2 10 1 53 129 93
477 2 2 1 1 55 143 138
478 2 2 10 1 55 143 138
479 2 2 1 1 58 144 139
480 2 2 10 1 58 144 139
481 2 2 1 1 61 145 141
482 2 2 10 1 61 145 141
483 2 2 1 1 8 94 114
484 2 2 10 1 8 94 114
485 2 2 1 1 17 95 115
486 2 2 10 1 17 95 115
487 2 2 1 1 54 114 94
488 2 2 10 1 54 114 94
489 2 2 1 1 56 115 95
490 2 2 10 1 56 115 95
491 2 2 1 1 35 96 118
492 2 2 10 1 35 96 118
493 2 2 1 1 57 118 96
494 2 2 10 1 57 118 96
495 2 2 1 1 26 97 119
496 2 2 10 1 26 97 119
497 2 2 1 1 60 119 97
498 2 2 10 1 60 119 97
499 2 2 1 1 54 134 106
500 2 2 10 1 54 134 106
501 2 2 1 1 56 135 107
502 2 2 10 1 56 135 107
503 2 2 1 1 7 8 114
504 2 2 10 1 7 8 114
505 2 2 1 1 16 17 115
506 2 2 10 1 16 17 115
507 2 2 1 1 37 38 116
508 2 2 10 1 37 38 116
509 2 2 1 1 28 29 117
510 2 2 10 1 28 29 117
511 2 2 1 1 34 35 118
512 2 2 10 1 34 35 118
513 2 2 1 1 25 26 119
514 2 2 10 1 25 26 119
515 2 2 1 1 10 11 120
516 2 2 10 1 10 11 120
517 2 2 1 1 19 20 121
518 2 2 10 1 19 20 121
519 2 2 1 1 41 89 142
520 2 2 10 1 41 89 142
521 2 2 1 1 41 88 146
522 2 2 10 1 41 88 146
523 2 2 1 1 41 146 89
524 2 2 10 1 41 146 89
525 2 2 1 1 65 142 89
526 2 2 10 1 65 142 89
527 2 2 1 1 54 94 134
528 2 2 10 1 54 94 134
529 2 2 1 1 56 95 135
530 2 2 10 1 56 95 135
531 2 2 1 1 57 96 136
532 2 2 10 1 57 96 136
533 2 2 1 1 60 97 137
534 2 2 10 1 60 97 137
535 2 2 1 1 63 146 88
536 2 2 10 1 63 146 88
537 2 2 1 1 43 144 99
538 2 2 10 1 43 144 99
539 2 2 1 1 42 143 98
540 2 2 10 1 42 143 98
541 2 2 1 1 45 145 101
542 2 2 10 1 45 145 101
543 2 2 1 1 41 142 109
544 2 2 10 1 41 142 109
$EndElements
